{
    "number of datasets": 5000,
    "number of points in dataset": 100,
    "number of hidden layers": 30,
    "number of learning epochs": 10000,
    "maximum number of anomalies": 10,
    "learning rate": 0.6,
    "scale factor": 0.4,
    "accuracy": 0.05
}